19:00 11-09-2020, STC-30, Основы промышленной разработки ПО на Java
19:00 15-09-2020, STC-30, Основы промышленной разработки ПО на Java
19:00 19-09-2020, STC-30, Основы промышленной разработки ПО на Java
19:00 25-09-2020, STC-30, Основы промышленной разработки ПО на Java
