ц796фя187;Acura CL;белый;0;592285
у306ыч155;Acura EL;черный;20000;1402043
к899вс133;Acura ILX;красный;100000;1077099
е772ам127;Acura Integra;синий;40000;1795969
н907пи190;Acura MDX;белый;80000;1945948
г510рт165;Acura NSX;черный;70000;697053
ш529оь151;Acura RDX;красный;30000;358303
щ944лб114;Acura RL;синий;100000;1394126
з439дю187;Acura RLX;белый;80000;960912
х900цы178;Acura RSX;черный;70000;1955123
ж080ув148;Acura TL;красный;80000;419473
д136ка162;Acura TLX;синий;90000;796157
л075еп160;Acura TSX;белый;60000;577787
о626нр119;Acura ZDX;черный;30000;1919962
р232го193;Alfa Romeo 146;красный;20000;634006
п890шл138;Alfa Romeo 147;синий;40000;1883896
а356щд167;Alfa Romeo 156;белый;100000;1934564
в567зж117;Alfa Romeo 159;черный;10000;836495
ы124цу140;Alfa Romeo 166;красный;70000;1011994
ф750ыв142;Alfa Romeo 147 GTA;синий;100000;638732
я011чс144;Alfa Romeo 156 GTA;белый;80000;990152
ч241ук123;Alfa Romeo 4C;черный;100000;1586401
с237ва166;Alfa Romeo 8C Competizione;красный;100000;716250
м833см167;Alfa Romeo Brera;синий;90000;1590074
и858ен157;Alfa Romeo Giulia;белый;20000;1555536
т099пр190;Alfa Romeo Giulietta;черный;100000;661286
б756ит188;Alfa Romeo GT;красный;90000;388333
ю053нг113;Alfa Romeo GTV;синий;100000;1716326
ц268ро123;Alfa Romeo MiTo;белый;40000;955347
у265ро152;Alfa Romeo Spider;черный;40000;563981
к478фя126;Alfa Romeo Stelvio;красный;100000;796922
е837ыч172;Aston Martin Cygnet;синий;40000;1151559
н964вс122;Aston Martin DB11;белый;50000;893853
г464ам192;Aston Martin DB9;черный;90000;860425
ш817пи163;Aston Martin DBS;красный;30000;1549977
щ303рт169;Aston Martin DBS Violante;синий;60000;1591331
з709оь174;Aston Martin DBX;белый;80000;1932279
х685лб191;Aston Martin Rapide;черный;90000;596055
ж855дю132;Aston Martin V12 Vantage;красный;70000;1886642
д665цы153;Aston Martin V8 Vantage;синий;80000;355718
л722ув190;Aston Martin Valkyrie;белый;30000;1903659
о400ка116;Aston Martin Vanquish;черный;30000;1596749
р404еп131;Aston Martin Virage;красный;70000;1682423
п390нр115;Aston Martin Zagato Coupe;синий;60000;1410283
а299го124;Audi A1;белый;100000;1102101
в006шл112;Audi A2;черный;30000;376929
ы057щд163;Audi A3;красный;20000;1898973
ф749зж135;Audi A4;синий;10000;337045
я066цу180;Audi A4 Allroad Quattro;белый;50000;1553164
ч458ыв127;Audi A5;черный;90000;1553077
с884чс126;Audi A6;красный;80000;646085
м420ук122;Audi A7;синий;100000;1417581
и590ва185;Audi A8;белый;10000;343111
т851см157;Audi Allroad;черный;90000;838865
б296ен160;Audi E-Tron;красный;30000;812903
ю361пр153;Audi Q2;синий;10000;790485
ц273ит146;Audi Q3;белый;100000;1044347
у161нг163;Audi Q5;черный;100000;1922820
к559ро175;Audi Q7;красный;50000;1443691
е118ро173;Audi Q8;синий;70000;436992
н785фя158;Audi R8;белый;30000;1042593
г203ыч190;Audi RS Q3;черный;30000;879164
ш992вс180;Audi RS3;красный;30000;1914978
щ927ам132;Audi RS4;синий;90000;1838721
з133пи187;Audi RS5;белый;100000;1686540
х885рт133;Audi RS6;черный;20000;1839837
ж918оь194;Audi RS7;красный;80000;1258310
д756лб187;Audi S3;синий;100000;344861
л499дю132;Audi S4;белый;80000;1533957
о762цы154;Audi S5;черный;50000;1152625
р984ув125;Audi S6;красный;90000;791995
п029ка132;Audi S7;синий;60000;1275451
а681еп122;Audi S8;белый;60000;1681737
в510нр175;Audi SQ2;черный;70000;1185428
ы144го171;Audi SQ5;красный;40000;1602429
ф288шл189;Audi SQ7;синий;10000;1841866
я704щд143;Audi SQ8;белый;90000;1399001
ч103зж115;Audi TT;черный;20000;1937898
с078цу112;Audi TT RS;красный;40000;1053812
м798ыв195;Audi TTS;синий;100000;852568
и777чс115;Bentley Arnage;белый;10000;1777283
т010ук197;Bentley Azure;черный;80000;306844
б047ва115;Bentley Bentayga;красный;90000;1402018
ю888см189;Bentley Brooklands;синий;70000;1240857
ц472ен194;Bentley Continental;белый;10000;1506048
у394пр181;Bentley Continental Flying Spur;черный;20000;902059
к190ит168;Bentley Continental GT;красный;100000;722126
е948нг172;Bentley Flying Spur;синий;60000;631160
н706ро129;Bentley Mulsanne;белый;30000;939083
г793ро169;BMW 1 series;черный;100000;804438
ш800фя169;BMW 2 series;красный;100000;1847413
щ565ыч152;BMW 3 series;синий;20000;920588
з448вс168;BMW 4 series;белый;10000;849908
х879ам117;BMW 5 series;черный;10000;1025882
ж659пи173;BMW 6 series;красный;50000;1453803
д437рт179;BMW 7 series;синий;100000;916547
л713оь145;BMW 8 series;белый;40000;1095007
о475лб179;BMW i3;черный;100000;1612310
р098дю168;BMW i8;красный;80000;1901784
п881цы126;BMW M2;синий;80000;1521043
а329ув184;BMW M3;белый;40000;1065609
в924ка173;BMW M4;черный;70000;589357
ы690еп195;BMW M5;красный;50000;1610706
ф420нр162;BMW M6;синий;20000;1052805
я958го125;BMW X1;белый;40000;1801550
ч883шл187;BMW X2;черный;90000;936997
с136щд139;BMW X3;красный;70000;871050
м913зж175;BMW X3 M;синий;70000;1755083
и832цу186;BMW X4;белый;90000;835953
т843ыв166;BMW X4 M;черный;100000;420643
б840чс181;BMW X5;красный;70000;423283
ю677ук126;BMW X5 M;синий;10000;859641
ц844ва131;BMW X6;белый;90000;1304078
у902см143;BMW X6 M;черный;100000;540551
к046ен173;BMW X7;красный;60000;961357
е313пр134;BMW Z3;синий;90000;1066524
н467ит194;BMW Z4;белый;30000;1620527
г989нг164;BMW Z8;черный;100000;1637031
ш558ро119;Brilliance H230;красный;60000;315259
щ349ро199;Brilliance V3;синий;10000;973896
з531фя111;Brilliance V5;белый;30000;1861338
х292ыч174;Bugatti Veyron;черный;70000;717950
ж024вс122;Buick Century;красный;30000;1654036
д612ам174;Buick Enclave;синий;100000;590016
л039пи137;Buick Envision;белый;90000;1746373
о129рт132;Buick La Crosse;черный;40000;1450262
р368оь135;Buick Le Sabre;красный;60000;415868
п095лб120;Buick Lucerne;синий;70000;725415
а585дю115;Buick Park Avenue;белый;10000;1855655
в628цы186;Buick Rainier;черный;100000;1119069
ы519ув124;Buick Regal;красный;40000;1769314
ф117ка176;Buick Rendezvouz;синий;20000;1449958
я960еп161;Buick Terraza;белый;60000;1030669
ч055нр116;Buick Verano;черный;30000;1006493
с484го140;BYD Qin;красный;50000;846527
м816шл115;Cadillac ATS;синий;60000;1275406
и181щд132;Cadillac ATS-V;белый;100000;1804380
т762зж142;Cadillac BLS;черный;20000;1922053
б008цу145;Cadillac CT6;красный;20000;1836879
ю600ыв153;Cadillac CTS;синий;40000;1789831
ц639чс179;Cadillac De Ville;белый;90000;1700314
у988ук126;Cadillac DTS;черный;60000;1973161
к772ва149;Cadillac Eldorado;красный;30000;1303361
е206см141;Cadillac ELR;синий;30000;492518
н111ен116;Cadillac Escalade;белый;90000;539918
г816пр168;Cadillac Seville;черный;30000;962125
ш050ит176;Cadillac SRX;красный;80000;541276
щ858нг145;Cadillac STS;синий;100000;493581
з334ро153;Cadillac XLR;белый;40000;1256301
х222ро173;Cadillac XT4;черный;100000;495510
ж013фя174;Cadillac XT5;красный;50000;1323599
д345ыч130;Cadillac XT6;синий;60000;1166648
л233вс111;Cadillac XTS;белый;50000;940480
о768ам176;Changan CS35;черный;100000;1169608
р893пи147;Changan CS35 Plus;красный;80000;679016
п657рт198;Changan CS55;синий;60000;995083
а862оь154;Changan CS75;белый;10000;1244110
в309лб138;Changan CS95;черный;50000;1681818
ы704дю176;Changan Eado;красный;50000;1995880
ф418цы139;Changan Raeton;синий;60000;1223917
я433ув152;Chery Amulet;белый;90000;442278
ч646ка156;Chery Arrizo 7;черный;60000;750344
с964еп162;Chery Bonus;красный;10000;424340
м670нр157;Chery Bonus 3;синий;70000;997955
и778го125;Chery CrossEastar;белый;100000;391291
т494шл125;Chery Eastar;черный;60000;1219087
б559щд164;Chery Fora;красный;20000;1926356
ю988зж143;Chery IndiS;синий;30000;1882265
ц323цу156;Chery Kimo;белый;20000;413448
у765ыв162;Chery M11;черный;50000;1424349
к142чс128;Chery QQ;красный;70000;426205
е980ук159;Chery QQ6;синий;80000;1534711
н057ва111;Chery Tiggo;белый;20000;747721
г664см114;Chery Tiggo 3;черный;40000;1755378
ш296ен147;Chery Tiggo 4;красный;90000;875271
щ503пр191;Chery Tiggo 5;синий;60000;1907288
з720ит131;Chery Tiggo 7;белый;50000;1237103
х579нг199;Chery Tiggo 8;черный;100000;349647
ж441ро167;Chery Very;красный;50000;1507034
д939ро164;Chevrolet Astro;синий;100000;1544765
л016фя181;Chevrolet Avalanche;белый;10000;834687
о956ыч176;Chevrolet Aveo;черный;20000;1365493
р266вс124;Chevrolet Blazer;красный;100000;847638
п040ам142;Chevrolet Camaro;синий;50000;1596605
а591пи123;Chevrolet Captiva;белый;50000;1267422
в359рт133;Chevrolet Cavalier;черный;100000;1619041
ы262оь163;Chevrolet Cobalt;красный;90000;870572
ф147лб196;Chevrolet Colorado;синий;30000;1682332
я682дю155;Chevrolet Corvette;белый;50000;1228711
ч816цы144;Chevrolet Cruze;черный;100000;1647685
с436ув150;Chevrolet Epica;красный;80000;1086556
м677ка168;Chevrolet Equinox;синий;90000;1453493
и631еп144;Chevrolet Express;белый;100000;668260
т828нр124;Chevrolet HHR;черный;60000;1417229
б843го174;Chevrolet Impala;красный;60000;1055128
ю870шл137;Chevrolet Lacetti;синий;90000;457014
ц211щд167;Chevrolet Lanos;белый;10000;396805
у870зж131;Chevrolet Malibu;черный;10000;1749143
к217цу120;Chevrolet Monte Carlo;красный;90000;542978
е092ыв134;Chevrolet Niva;синий;60000;733900
н690чс126;Chevrolet Orlando;белый;20000;576331
г919ук167;Chevrolet Rezzo;черный;100000;1917623
ш610ва125;Chevrolet Silverado;красный;80000;312603
щ195см134;Chevrolet Silverado 2500 HD;синий;20000;418634
з936ен184;Chevrolet Spark;белый;100000;1348106
х892пр166;Chevrolet SSR;черный;70000;644043
ж780ит138;Chevrolet Suburban;красный;10000;1655605
д836нг124;Chevrolet Tahoe;синий;20000;1953316
л518ро123;Chevrolet TrailBlazer;белый;70000;543858
о830ро158;Chevrolet Traverse;черный;100000;868225
р580фя160;Chevrolet Trax;красный;30000;699418
п843ыч188;Chevrolet Uplander;синий;20000;1649183
а678вс131;Chevrolet Venture;белый;100000;345462
в307ам114;Chrysler 200;черный;100000;1087602
ы206пи151;Chrysler 300;красный;20000;724793
ф505рт122;Chrysler 300M;синий;100000;1669541
я684оь136;Chrysler Aspen;белый;10000;759406
ч124лб149;Chrysler Concorde;черный;70000;403917
с694дю126;Chrysler Crossfire;красный;90000;1457140
м546цы114;Chrysler Grand Voyager;синий;40000;636529
и479ув136;Chrysler Pacifica;белый;20000;973830
т725ка128;Chrysler PT Cruiser;черный;40000;823378
б045еп133;Chrysler Sebring;красный;20000;1588603
ю346нр119;Chrysler Town & Country;синий;20000;676816
ц354го154;Chrysler Voyager;белый;30000;1869438
у267шл130;Citroen Berlingo;черный;100000;1315713
к113щд117;Citroen C1;красный;70000;742112
е718зж175;Citroen C2;синий;100000;1205069
н982цу154;Citroen C3;белый;100000;1253317
г245ыв151;Citroen C3 Aircross;черный;100000;1801719
ш960чс112;Citroen C3 Picasso;красный;50000;1177098
щ131ук174;Citroen C3 Pluriel;синий;90000;1710228
з736ва153;Citroen C4;белый;30000;1189691
х515см135;Citroen C4 Aircross;черный;40000;1660088
ж242ен149;Citroen C4 Cactus;красный;100000;1809261
д175пр122;Citroen C4 Picasso;синий;10000;1573522
л813ит111;Citroen C5;белый;40000;755330
о219нг139;Citroen C6;черный;80000;1064676
р068ро180;Citroen C8;красный;40000;1147446
п263ро184;Citroen C-Crosser;синий;20000;351525
а907фя188;Citroen C-Elysee;белый;60000;1051315
в059ыч187;Citroen DS 7 Crossback;черный;90000;1765679
ы631вс189;Citroen DS3;красный;40000;1453900
ф175ам168;Citroen DS4;синий;20000;1990072
я859пи169;Citroen DS5;белый;10000;1806359
ч094рт112;Citroen Grand C4 Picasso;черный;30000;875239
с955оь114;Citroen Jumpy;красный;40000;770717
м484лб148;Citroen Nemo;синий;20000;1993480
и419дю189;Citroen Saxo;белый;90000;1574157
т507цы121;Citroen Spacetourer;черный;30000;642824
б394ув195;Citroen Xsara;красный;40000;1313834
ю120ка162;Citroen Xsara Picasso;синий;20000;1167776
ц301еп137;Daewoo Evanda;белый;100000;1706330
у220нр185;Daewoo Kalos;черный;10000;1236420
к710го168;Daewoo Leganza;красный;70000;846820
е749шл136;Daewoo Magnus;синий;20000;1924934
н510щд163;Daewoo Matiz;белый;40000;488670
г611зж134;Daewoo Nexia;черный;80000;499355
ш709цу157;Daewoo Nubira;красный;100000;1265500
щ911ыв131;Daihatsu Applause;синий;10000;1127310
з077чс134;Daihatsu Cast;белый;80000;1490011
х281ук115;Daihatsu Copen;черный;50000;583787
ж017ва181;Daihatsu Cuore;красный;80000;456219
д485см112;Daihatsu Gran Move;синий;20000;1164651
л564ен156;Daihatsu Luxio;белый;100000;1665769
о000пр111;Daihatsu Materia;черный;40000;1419520
р646ит174;Daihatsu Mebius;красный;20000;1154691
п929нг116;Daihatsu Move;синий;80000;1245626
а605ро150;Daihatsu Rocky;белый;70000;1881009
в810ро180;Daihatsu Sirion;черный;40000;1650223
ы128фя128;Daihatsu Terios;красный;90000;1189363
ф702ыч174;Daihatsu Trevis;синий;30000;1069017
я140вс187;Daihatsu YRV;белый;10000;963937
ч947ам184;Datsun mi-DO;черный;60000;1505706
с013пи168;Datsun on-DO;красный;60000;1236450
м895рт121;Dodge Avenger;синий;30000;842459
и863оь135;Dodge Caliber;белый;100000;1029106
т227лб164;Dodge Caliber SRT4;черный;100000;650317
б012дю183;Dodge Caravan;красный;80000;1792600
ю220цы112;Dodge Challenger;синий;10000;1214198
ц437ув159;Dodge Charger;белый;100000;745601
у412ка129;Dodge Dakota;черный;100000;1327576
к525еп160;Dodge Dart;красный;10000;822799
е538нр185;Dodge Durango;синий;100000;788417
н969го112;Dodge Intrepid;белый;40000;1305104
г404шл183;Dodge Journey;черный;100000;978709
ш447щд115;Dodge Magnum;красный;60000;630042
щ049зж185;Dodge Neon;синий;40000;1037085
з860цу153;Dodge Nitro;белый;60000;1574763
х044ыв194;Dodge Ram 1500;черный;100000;1269780
ж926чс163;Dodge Ram 2500;красный;30000;942512
д995ук130;Dodge Ram 3500;синий;70000;1255742
л886ва164;Dodge Ram SRT10;белый;60000;1278946
о516см198;Dodge Stratus;черный;30000;612929
р890ен186;Dodge Viper;красный;50000;1673459
п646пр138;Dongfeng 580;синий;70000;464044
а909ит137;Dongfeng A30;белый;70000;620523
в474нг173;Dongfeng AX7;черный;60000;1382058
ы434ро178;Dongfeng H30 Cross;красный;90000;1503201
ф204ро137;FAW Besturn B30;синий;40000;1825458
я768фя157;FAW Besturn B50;белый;40000;1856623
ч397ыч179;FAW Besturn X40;черный;50000;1924312
с961вс152;FAW Besturn X80;красный;90000;1900723
м749ам129;FAW Oley;синий;10000;1652225
и670пи189;FAW Vita;белый;50000;977084
т309рт163;Ferrari 348;черный;70000;1704533
б569оь153;Ferrari 360;красный;80000;1964219
ю714лб131;Ferrari 456;синий;50000;1041610
ц733дю159;Ferrari 458;белый;70000;1133864
у138цы147;Ferrari 488;черный;30000;458004
к508ув116;Ferrari 512;красный;70000;1761100
е862ка184;Ferrari 550;синий;40000;1528229
н907еп118;Ferrari 612;белый;100000;981811
г073нр177;Ferrari 812;черный;10000;1613417
ш872го172;Ferrari 575 M;красный;70000;1031879
щ742шл190;Ferrari 599 GTB Fiorano;синий;20000;335636
з085щд123;Ferrari 599 GTO;белый;30000;1398598
х319зж129;Ferrari California;черный;90000;363103
ж836цу122;Ferrari California T;красный;20000;777893
д920ыв158;Ferrari Challenge Stradale;синий;80000;1461593
л816чс154;Ferrari Enzo;белый;10000;1982711
о331ук196;Ferrari F12;черный;90000;1847558
р750ва149;Ferrari F355;красный;10000;1645346
п959см111;Ferrari F430;синий;90000;1520543
а210ен145;Ferrari F50;белый;70000;1358501
в868пр191;Ferrari F512 M;черный;70000;581926
ы614ит196;Ferrari FF;красный;30000;1542368
ф157нг190;Ferrari GTC4 Lusso;синий;60000;1860919
я335ро147;Ferrari LaFerrari;белый;40000;689230
ч018ро197;Fiat 500;черный;60000;705145
с588фя165;Fiat 124 Spider;красный;100000;1561092
м912ыч164;Fiat 500L;синий;40000;1378898
и963вс196;Fiat 500X;белый;60000;1806806
т327ам124;Fiat Albea;черный;40000;844365
б030пи196;Fiat Brava;красный;60000;308727
ю714рт111;Fiat Bravo;синий;70000;1230710
ц071оь115;Fiat Coupe;белый;30000;1387393
у629лб133;Fiat Croma;черный;100000;1077111
к178дю177;Fiat Doblo;красный;20000;684701
е266цы151;Fiat Ducato;синий;100000;670951
н130ув186;Fiat Freemont;белый;50000;1661760
г812ка137;Fiat Grande Punto;черный;100000;1612898
ш895еп194;Fiat Idea;красный;80000;866548
щ087нр157;Fiat Linea;синий;60000;599186
з754го117;Fiat Marea;белый;70000;488807
х452шл140;Fiat Multipla;черный;70000;1154286
ж292щд172;Fiat Palio;красный;20000;1427363
д514зж196;Fiat Panda;синий;50000;982638
л390цу155;Fiat Panda 4x4;белый;90000;609064
о621ыв165;Fiat Punto;черный;50000;1968871
р257чс195;Fiat Qubo;красный;100000;943386
п397ук157;Fiat Sedici;синий;70000;1480371
а506ва185;Fiat Siena;белый;20000;364159
в615см151;Fiat Stilo;черный;20000;730721
ы589ен112;Fiat Strada;красный;90000;640369
ф681пр183;Fiat Tipo;синий;60000;307678
я888ит166;Fiat Ulysse;белый;10000;1102301
ч730нг154;Fisker Karma;черный;30000;432205
с912ро168;Ford B-Max;красный;70000;1657533
м394ро163;Ford C-Max;синий;20000;1158791
и074фя185;Ford Cougar;белый;10000;1065973
т996ыч189;Ford Crown Victoria;черный;20000;847833
б419вс128;Ford EcoSport;красный;50000;482845
ю816ам171;Ford Edge;синий;50000;1087559
ц559пи169;Ford Escape;белый;40000;1328109
у927рт152;Ford Excursion;черный;30000;1910274
к195оь153;Ford Expedition;красный;90000;1087026
е519лб183;Ford Explorer;синий;10000;676570
н252дю194;Ford Explorer Sport Trac;белый;50000;1069501
г724цы184;Ford F-150;черный;100000;885598
ш857ув141;Ford F-250;красный;90000;443630
щ338ка113;Ford F-350;синий;50000;1938768
з314еп127;Ford Falcon;белый;40000;380172
х324нр137;Ford Fiesta;черный;30000;1727515
ж766го194;Ford Five Hundred;красный;100000;427817
д361шл163;Ford Flex;синий;100000;1954414
л928щд136;Ford Focus;белый;90000;1406201
о414зж173;Ford Focus Active;черный;60000;1861156
р994цу154;Ford Freestar;красный;60000;1593494
п235ыв132;Ford Freestyle;синий;40000;950222
а162чс165;Ford Fusion;белый;80000;1023921
в896ук182;Ford Galaxy;черный;80000;1037228
ы089ва188;Ford Ka;красный;60000;446773
ф664см125;Ford Kuga;синий;40000;514320
я618ен161;Ford Maverick;белый;50000;1582913
ч140пр188;Ford Mondeo;черный;100000;1110830
с313ит171;Ford Mustang;красный;100000;1978690
м469нг199;Ford Mustang Shelby GT350;синий;40000;1917383
и130ро149;Ford Mustang Shelby GT500;белый;40000;1740796
т635ро121;Ford Puma;черный;10000;680398
б154фя130;Ford Ranger;красный;60000;1406693
ю766ыч167;Ford S-Max;синий;10000;1821244
ц399вс173;Ford Taurus;белый;80000;1742349
у962ам139;Ford Taurus X;черный;40000;1035880
к453пи131;Ford Thunderbird;красный;70000;1071762
е172рт176;Ford Tourneo Connect;синий;80000;830993
н767оь128;Ford Transit;белый;90000;1200241
г932лб176;Ford Transit Connect;черный;100000;1877557
ш512дю174;GAZ 3102;красный;10000;777063
щ919цы160;GAZ 31105;синий;80000;1029332
з048ув199;GAZ Siber;белый;100000;1787848
х512ка184;GAZ Sobol;черный;10000;1134056
ж356еп163;Geely Atlas;красный;40000;1636191
д845нр159;Geely Coolray;синий;100000;1031369
л504го121;Geely Emgrand 7;белый;50000;1899444
о308шл163;Geely Emgrand EC7;черный;30000;420640
р644щд113;Geely Emgrand GS;красный;40000;1539150
п679зж171;Geely Emgrand X7;синий;20000;945733
а419цу186;Geely GC9;белый;30000;1999587
в321ыв188;Geely GÐ¡6;черный;50000;1756510
ы418чс179;Geely MK;красный;100000;392449
ф865ук125;Geely Otaka;синий;10000;591368
я494ва174;Geely Vision;белый;10000;1292178
ч667см159;Genesis G70;черный;40000;1465181
с438ен171;Genesis G80;красный;30000;1635556
м953пр142;Genesis G90;синий;20000;1547266
и633ит183;GMC Acadia;белый;100000;1366597
т025нг155;GMC Canyon;черный;90000;1346746
б226ро194;GMC Envoy;красный;80000;522534
ю881ро155;GMC Sierra 1500;синий;100000;1902440
ц857фя177;GMC Sierra 2500;белый;50000;507668
у839ыч132;GMC Terrain;черный;20000;490804
к656вс116;GMC Yukon;красный;90000;1052314
е907ам124;Great Wall Cowry;синий;100000;1800402
н463пи132;Great Wall Deer;белый;80000;537141
г895рт115;Great Wall Hover;черный;70000;1756883
ш775оь143;Great Wall Hover M2;красный;100000;1714049
щ586лб127;Great Wall Pegasus;синий;70000;1576755
з898дю133;Great Wall Peri;белый;10000;509191
х295цы164;Great Wall Safe;черный;90000;1156133
ж740ув192;Great Wall Sailor;красный;90000;949271
д707ка135;Great Wall Sing;синий;10000;478977
л419еп172;Great Wall Socool;белый;10000;993948
о029нр135;Great Wall Wingle;черный;100000;580216
р482го168;Haval F7;красный;70000;1163485
п622шл128;Haval H4;синий;40000;1840272
а219щд128;Haval H6;белый;80000;772088
в650зж159;Haval H9;черный;100000;1101076
ы857цу163;Holden Commodore;красный;60000;754543
ф686ыв179;Honda Accord;синий;50000;780858
я435чс162;Honda Amaze;белый;100000;1880504
ч402ук188;Honda City;черный;90000;1754473
с051ва119;Honda Civic;красный;40000;1335125
м564см173;Honda Crosstour;синий;20000;1572777
и216ен174;Honda CR-V;белый;10000;799352
т035пр158;Honda CR-Z;черный;90000;1987814
б719ит114;Honda Element;красный;50000;750614
ю890нг117;Honda Fit;синий;100000;1506106
ц759ро178;Honda FR-V;белый;50000;1459659
у809ро178;Honda HR-V;черный;60000;851750
к928фя147;Honda HR-V II (GJ);красный;10000;1480939
е416ыч177;Honda Insight;синий;60000;793009
н021вс143;Honda Jade;белый;80000;1084562
г653ам127;Honda Jazz;черный;30000;461998
ш543пи178;Honda Legend;красный;10000;1294515
щ630рт164;Honda Odyssey;синий;40000;1002148
з574оь193;Honda Pilot;белый;80000;482270
х992лб138;Honda Prelude;черный;20000;670739
ж076дю131;Honda Ridgeline;красный;70000;1331717
д439цы198;Honda S2000;синий;80000;1104524
л763ув136;Honda Shuttle;белый;30000;1203940
о857ка134;Honda Stream;черный;50000;1608754
р818еп132;Honda Vezel;красный;10000;600358
п174нр166;Hummer H1;синий;70000;757473
а119го126;Hummer H2;белый;100000;334244
в090шл155;Hummer H3;черный;90000;384842
ы508щд161;Hyundai Accent;красный;100000;1613255
ф525зж176;Hyundai Atos Prime;синий;10000;1581918
я671цу184;Hyundai Azera;белый;10000;421435
ч288ыв198;Hyundai Centennial;черный;80000;1758869
с264чс155;Hyundai Creta;красный;10000;1166188
м842ук159;Hyundai Elantra;синий;70000;1387728
и280ва185;Hyundai Entourage;белый;30000;308143
т946см147;Hyundai Eon;черный;60000;1687879
б253ен187;Hyundai Equus;красный;100000;1133498
ю438пр169;Hyundai Galloper;синий;30000;1582891
ц002ит150;Hyundai Genesis;белый;40000;1227193
у813нг187;Hyundai Genesis Coupe;черный;20000;1911066
к777ро129;Hyundai Getz;красный;10000;1763214
е760ро139;Hyundai Grandeur;синий;40000;1939701
н112фя186;Hyundai H-1;белый;80000;452407
г138ыч120;Hyundai i10;черный;70000;845412
ш359вс180;Hyundai i20;красный;90000;1487832
щ269ам163;Hyundai i30;синий;60000;1945947
з694пи182;Hyundai i30 N;белый;50000;391563
х766рт199;Hyundai i40;черный;70000;1796040
ж317оь112;Hyundai Ioniq;красный;20000;955607
д587лб131;Hyundai ix20;синий;80000;579499
л074дю169;Hyundai ix35;белый;100000;1105787
о089цы179;Hyundai Kona;черный;100000;1776658
р601ув165;Hyundai Matrix;красный;100000;1675190
п826ка116;Hyundai Palisade;синий;60000;411540
а084еп176;Hyundai Porter;белый;40000;1650186
в428нр153;Hyundai Santa Fe;черный;80000;667622
ы001го175;Hyundai Solaris;красный;20000;1549825
ф821шл117;Hyundai Sonata;синий;100000;315058
я836щд133;Hyundai Terracan;белый;90000;394225
ч533зж169;Hyundai Trajet;черный;70000;1343007
с243цу157;Hyundai Tucson;красный;100000;1875458
м932ыв135;Hyundai Veloster;синий;20000;1176162
и737чс129;Hyundai Veracruz;белый;20000;834037
т755ук153;Hyundai Verna;черный;100000;1707709
б782ва160;Hyundai Xcent;красный;70000;996017
ю244см198;Hyundai XG;синий;30000;1482584
ц181ен124;Infiniti EX;белый;90000;1532252
у481пр121;Infiniti FX;черный;20000;662040
к735ит183;Infiniti G;красный;30000;400537
е660нг149;Infiniti I35;синий;80000;1568419
н098ро197;Infiniti JX;белый;80000;792243
г489ро118;Infiniti M;черный;100000;1221934
ш375фя128;Infiniti Q30;красный;30000;1697820
щ556ыч115;Infiniti Q40;синий;10000;1273147
з708вс148;Infiniti Q45;белый;60000;1798154
х688ам183;Infiniti Q50;черный;100000;1810405
ж839пи193;Infiniti Q60;красный;100000;645640
д443рт137;Infiniti Q70;синий;90000;449314
л238оь133;Infiniti QX30;белый;20000;754621
о145лб170;Infiniti QX4;черный;70000;1687251
р712дю149;Infiniti QX50;красный;100000;760152
п604цы116;Infiniti QX56;синий;60000;799028
а830ув112;Infiniti QX60;белый;100000;1263303
в491ка119;Infiniti QX70;черный;20000;1679437
ы292еп174;Infiniti QX80;красный;30000;1525785
ф471нр195;Isuzu Ascender;синий;70000;648036
я127го158;Isuzu Axiom;белый;100000;1594070
ч163шл193;Isuzu D-Max;черный;40000;1551485
с798щд160;Isuzu D-Max Rodeo;красный;100000;1395410
м209зж192;Isuzu I280;синий;30000;1429356
и131цу114;Isuzu I290;белый;40000;429029
т850ыв160;Isuzu I350;черный;90000;1378679
б854чс134;Isuzu I370;красный;10000;1677117
ю355ук137;Isuzu Rodeo;синий;20000;1943763
ц961ва171;Isuzu Trooper;белый;80000;496842
у813см116;Isuzu VehiCross;черный;100000;366559
к434ен131;Iveco Daily;красный;20000;1917739
е259пр157;Jaguar E-Pace;синий;50000;1559305
н457ит146;Jaguar F-Pace;белый;20000;997094
г302нг144;Jaguar F-Type;черный;100000;1016516
ш318ро199;Jaguar I-Pace;красный;70000;1313561
щ796ро122;Jaguar S-Type;синий;90000;1714354
з887фя156;Jaguar XE;белый;80000;974181
х146ыч115;Jaguar XF;черный;40000;1600358
ж875вс153;Jaguar XJ;красный;80000;779505
д857ам127;Jaguar XK/XKR;синий;30000;619246
л222пи144;Jaguar X-Type;белый;80000;1446017
о351рт129;Jeep Cherokee;черный;20000;1674953
р742оь132;Jeep Commander;красный;60000;855871
п517лб184;Jeep Compass;синий;10000;961824
а972дю187;Jeep Gladiator;белый;80000;588118
в448цы151;Jeep Grand Cherokee;черный;100000;1352111
ы681ув198;Jeep Liberty;красный;70000;1246738
ф969ка155;Jeep Patriot;синий;40000;1976983
я484еп118;Jeep Renegade;белый;90000;1374161
ч250нр145;Jeep Wrangler;черный;10000;1648344
с384го187;Kia Carens;красный;100000;1069079
м899шл113;Kia Carnival;синий;10000;1104131
и749щд162;Kia Ceed;белый;100000;537483
т756зж111;Kia Cerato;черный;100000;1762993
б639цу191;Kia Clarus;красный;40000;311523
ю824ыв146;Kia Forte;синий;30000;1421741
ц831чс195;Kia K900;белый;60000;1096877
у186ук149;Kia Magentis;черный;100000;1363186
к888ва151;Kia Mohave;красный;100000;820652
е677см167;Kia Niro;синий;100000;412313
н140ен138;Kia Opirus;белый;100000;355571
г461пр194;Kia Optima;черный;50000;1031439
ш746ит184;Kia Picanto;красный;30000;1857707
щ589нг118;Kia ProCeed;синий;100000;1830140
з520ро175;Kia Quoris;белый;70000;603535
х545ро141;Kia Ray;черный;90000;681522
ж160фя153;Kia Rio;красный;70000;413210
д543ыч198;Kia Rio X-Line;синий;60000;1375392
л169вс162;Kia Seltos;белый;30000;480794
о073ам193;Kia Shuma;черный;40000;825487
р494пи113;Kia Sorento;красный;100000;1799513
п919рт192;Kia Sorento Prime;синий;40000;715856
а874оь178;Kia Soul;белый;100000;518382
в077лб174;Kia Spectra;черный;60000;1307269
ы044дю193;Kia Sportage;красный;80000;410422
ф761цы146;Kia Stinger;синий;20000;1170570
я971ув118;Kia Stonic;белый;50000;1797675
ч759ка146;Kia Telluride;черный;10000;596219
с287еп116;Kia Venga;красный;100000;1350693
м829нр123;Lamborghini Aventador;синий;60000;1847746
и975го142;Lamborghini Centenario;белый;50000;667178
т717шл119;Lamborghini Diablo;черный;10000;1634786
б489щд160;Lamborghini Gallardo;красный;80000;1186899
ю665зж196;Lamborghini Huracan;синий;90000;302685
ц006цу162;Lamborghini Murcielago;белый;20000;991825
у944ыв125;Lamborghini Reventon;черный;100000;1810764
к071чс130;Lamborghini Urus;красный;80000;557245
е253ук168;Lancia Delta;синий;10000;1598469
н451ва141;Lancia Lybra;белый;50000;1354619
г936см160;Lancia Musa;черный;60000;1588241
ш158ен145;Lancia Phedra;красный;10000;857489
щ512пр193;Lancia Thema;синий;10000;709642
з028ит132;Lancia Thesis;белый;90000;1974312
х662нг127;Lancia Ypsilon;черный;30000;1590523
ж051ро148;Land Rover Defender;красный;30000;1076528
д395ро140;Land Rover Discovery;синий;50000;1243301
л783фя172;Land Rover Discovery Sport;белый;60000;355955
о014ыч143;Land Rover Evoque;черный;80000;1499911
р209вс199;Land Rover Freelander;красный;30000;911928
п092ам114;Land Rover Range Rover;синий;40000;444947
а463пи190;Land Rover Range Rover Sport;белый;20000;1250711
в545рт113;Land Rover Range Rover Velar;черный;10000;1967771
ы989оь116;Lexus CT;красный;40000;1979496
ф894лб191;Lexus ES;синий;90000;1669695
я273дю142;Lexus GS;белый;100000;1897865
ч655цы146;Lexus GX;черный;20000;1792574
с951ув178;Lexus HS;красный;40000;959572
м946ка194;Lexus IS;синий;80000;1270686
и688еп114;Lexus LC;белый;100000;471542
т825нр145;Lexus LFA;черный;100000;1782159
б461го116;Lexus LS;красный;100000;1852881
ю259шл188;Lexus LX;синий;10000;851853
ц735щд130;Lexus NX;белый;60000;375529
у570зж198;Lexus RC;черный;50000;1772633
к465цу152;Lexus RX;красный;90000;1236776
е334ыв161;Lexus SC;синий;10000;1804004
н691чс127;Lexus UX;белый;50000;662114
г066ук140;Lifan Breez;черный;40000;1217370
ш219ва198;Lifan Cebrium;красный;40000;1288034
щ952см183;Lifan Celliya;синий;100000;1054700
з796ен160;Lifan Smily;белый;90000;1829409
х974пр185;Lifan Solano;черный;100000;1226582
ж073ит176;Lifan X50;красный;100000;1997314
д066нг124;Lifan X60;синий;20000;311354
л366ро177;Lincoln Aviator;белый;60000;425153
о001ро147;Lincoln Corsair;черный;40000;1434685
р342фя198;Lincoln Mark LT;красный;100000;526449
п165ыч127;Lincoln MKC;синий;100000;1929622
а890вс153;Lincoln MKS;белый;30000;1331748
в519ам184;Lincoln MKT;черный;30000;1060462
ы992пи166;Lincoln MKX;красный;40000;542910
ф805рт133;Lincoln MKZ;синий;80000;441365
я582оь194;Lincoln Navigator;белый;10000;1187520
ч166лб141;Lincoln Town Car;черный;100000;1472693
с661дю115;Lincoln Zephyr;красный;20000;1215653
м020цы155;Lotus Elise;синий;20000;606112
и874ув149;Lotus Europa S;белый;10000;626578
т915ка129;Lotus Evora;черный;10000;1989786
б485еп172;Lotus Exige;красный;70000;425380
ю528нр154;Marussia B1;синий;10000;451903
ц224го195;Marussia B2;белый;60000;1686353
у883шл184;Maserati 3200 GT;черный;70000;1536557
к450щд112;Maserati Ghibli;красный;20000;1625402
е921зж178;Maserati Gran Cabrio;синий;80000;1702527
н711цу135;Maserati Gran Turismo ;белый;60000;551925
г649ыв163;Maserati Gran Turismo S;черный;70000;668968
ш434чс195;Maserati Levante;красный;60000;1708998
щ670ук192;Maserati Quattroporte;синий;70000;1111134
з118ва186;Maserati Quattroporte S;белый;30000;596831
х337см186;Maybach 57;черный;80000;1329855
ж389ен174;Maybach 62;красный;40000;1198423
д574пр189;Maybach 57 S;синий;100000;490730
л745ит137;Maybach 62 S;белый;20000;482698
о804нг137;Maybach Landaulet;черный;90000;1328411
р452ро163;Mazda 2;красный;60000;1439511
п131ро111;Mazda 3;синий;40000;1573299
а520фя115;Mazda 5;белый;60000;1178424
в589ыч174;Mazda 6;черный;100000;1516064
ы647вс121;Mazda 323;красный;50000;584717
ф721ам172;Mazda 626;синий;100000;1943596
я196пи116;Mazda B-Series;белый;100000;831364
ч629рт170;Mazda BT-50;черный;40000;344648
с698оь118;Mazda CX-3;красный;50000;1391428
м604лб140;Mazda CX-5;синий;100000;532068
и527дю138;Mazda CX-7;белый;50000;858781
т649цы157;Mazda CX-9;черный;90000;1677766
б009ув178;Mazda MPV;красный;90000;1215250
ю486ка131;Mazda MX-5;синий;10000;1804742
ц479еп194;Mazda Premacy;белый;10000;1605134
у614нр120;Mazda RX-7;черный;100000;1274248
к731го154;Mazda RX-8;красный;100000;528633
е775шл123;Mazda Tribute;синий;100000;1900069
н551щд175;McLaren 540C;белый;70000;1175045
г410зж141;McLaren 570S;черный;70000;527399
ш844цу172;McLaren 600LT;красный;20000;881540
щ847ыв112;McLaren 650S;синий;70000;1628019
з531чс182;McLaren 675LT;белый;90000;807136
х759ук167;McLaren 720S;черный;30000;343547
ж612ва114;McLaren MP4-12C;красный;100000;1696497
д682см114;McLaren P1;синий;50000;1250017
л672ен172;Mercedes A-class;белый;50000;315294
о081пр177;Mercedes AMG GT;черный;30000;483271
р274ит145;Mercedes AMG GT 4-Door;красный;40000;1910417
п786нг188;Mercedes B-class;синий;60000;1383802
а075ро115;Mercedes C-class;белый;60000;1556994
в146ро121;Mercedes C-class Sport Coupe;черный;40000;530745
ы533фя179;Mercedes CLA-class;красный;40000;1713284
ф734ыч177;Mercedes CLC-class ;синий;100000;378668
я809вс124;Mercedes CL-class;белый;100000;1370429
ч797ам182;Mercedes CLK-class;черный;20000;947066
с738пи186;Mercedes CLS-class;красный;100000;703595
м462рт135;Mercedes E-class;синий;90000;1877789
и078оь188;Mercedes E-class Coupe;белый;60000;396090
т411лб176;Mercedes EQC;черный;50000;1480895
б528дю114;Mercedes G-class;красный;60000;1207627
ю134цы147;Mercedes GLA-class;синий;10000;1174596
ц280ув159;Mercedes GLB-class;белый;70000;1116993
у284ка185;Mercedes GLC-class;черный;10000;1236784
к659еп167;Mercedes GLC-class Coupe;красный;60000;455213
е455нр134;Mercedes GL-class;синий;80000;702656
н249го197;Mercedes GLE-class;белый;20000;1580037
г110шл137;Mercedes GLE-class Coupe;черный;40000;673633
ш292щд122;Mercedes GLK-class;красный;100000;608884
щ350зж189;Mercedes GLS-class;синий;40000;1390038
з539цу124;Mercedes M-class;белый;100000;571369
х923ыв115;Mercedes R-class;черный;80000;1968532
ж662чс147;Mercedes S-class;красный;80000;1486882
д961ук113;Mercedes S-class Cabrio;синий;50000;1504141
л552ва114;Mercedes S-class Coupe;белый;10000;775431
л552ва114;Mercedes S-class Coupe;черный;10000;775431
л552ва114;Mercedes S-class Coupe;белый;10000;775431
л552ва114;Mercedes S-class Coupe;белый;10000;775431
о225см193;Mercedes SL-class;черный;60000;311589
р273ен173;Mercedes SLK-class;красный;20000;365530
п341пр150;Mercedes SLR-class;синий;30000;1089739
а804ит133;Mercedes SLS AMG;белый;10000;900477
в583нг126;Mercedes Sprinter;черный;30000;315222
ы095ро136;Mercedes Vaneo;красный;20000;692491
ф183ро144;Mercedes Viano;синий;10000;1388285
я688фя177;Mercedes Vito;белый;30000;1086993
ч432ыч198;Mercedes X-class;черный;90000;953672
с307вс191;Mercury Grand Marquis;красный;10000;309374
м309ам135;Mercury Mariner;синий;60000;1163050
и002пи121;Mercury Milan;белый;100000;397551
т558рт168;Mercury Montego;черный;100000;521922
б833оь134;Mercury Monterey;красный;50000;919833
ю160лб187;Mercury Mountaineer;синий;50000;903560
ц206дю157;Mercury Sable;белый;30000;585107
у436цы116;MG TF;черный;90000;1778096
к167ув136;MG XPower SV;красный;80000;1115892
е632ка129;MG ZR;синий;50000;652795
н872еп196;MG ZS;белый;40000;827909
г264нр134;MG ZT;черный;70000;713753
ш447го197;MG ZT-T;красный;70000;1261180
щ232шл198;Mini Clubman;синий;50000;1882787
з692щд143;Mini Clubman S;белый;60000;1972928
х156зж156;Mini Clubvan;черный;60000;1209113
ж111цу171;Mini Cooper;красный;90000;1162617
д845ыв163;Mini Cooper Cabrio;синий;50000;436007
л375чс152;Mini Cooper S;белый;20000;310382
о979ук191;Mini Cooper S Cabrio;черный;100000;1572899
р540ва122;Mini Cooper S Countryman All4;красный;80000;1217098
п526см171;Mini Countryman;синий;100000;481171
а598ен188;Mini One;белый;30000;324611
в612пр147;Mitsubishi 3000 GT;черный;40000;1884477
ы861ит170;Mitsubishi ASX;красный;100000;1256982
ф937нг170;Mitsubishi Carisma;синий;100000;1457809
я073ро179;Mitsubishi Colt;белый;60000;1052323
ч558ро175;Mitsubishi Dignity;черный;70000;778308
с390фя126;Mitsubishi Eclipse;красный;90000;912853
м991ыч197;Mitsubishi Eclipse Cross;синий;90000;1441233
и185вс167;Mitsubishi Endeavor;белый;30000;1398074
т867ам162;Mitsubishi Galant;черный;90000;1915755
б979пи133;Mitsubishi Grandis;красный;100000;1557591
ю359рт181;Mitsubishi i-MiEV;синий;10000;389183
ц414оь126;Mitsubishi L200;белый;60000;766978
у534лб116;Mitsubishi Lancer;черный;80000;1643027
к623дю123;Mitsubishi Lancer Evo;красный;100000;478754
е869цы180;Mitsubishi Mirage;синий;100000;372480
н812ув169;Mitsubishi Outlander;белый;80000;1877741
г928ка151;Mitsubishi Outlander XL;черный;20000;606290
ш040еп135;Mitsubishi Pajero;красный;100000;1321824
щ751нр114;Mitsubishi Pajero Pinin;синий;10000;662002
з289го151;Mitsubishi Pajero Sport;белый;50000;426565
х914шл154;Mitsubishi Raider;черный;50000;0
ж438щд143;Mitsubishi Space Gear;красный;20000;848759
д994зж173;Mitsubishi Space Runner;синий;100000;1492543
л444цу164;Mitsubishi Space Star;белый;10000;1504866
о575ыв143;Nissan 350Z;черный;90000;1923002
р191чс152;Nissan 370Z;красный;50000;932145
п527ук160;Nissan Almera;синий;60000;1466809
а636ва112;Nissan Almera Classic;белый;60000;532675
в878см131;Nissan Almera Tino;черный;20000;845847
ы673ен173;Nissan Altima;красный;40000;771713
ф614пр183;Nissan Armada;синий;100000;831743
я746ит124;Nissan Bluebird Sylphy;белый;10000;546057
ч402нг175;Nissan GT-R;черный;70000;1800762
с564ро136;Nissan Juke;красный;50000;1255650
м856ро138;Nissan Leaf;синий;100000;873563
и725фя138;Nissan Maxima;белый;10000;1398436
т835ыч140;Nissan Micra;черный;80000;796500
б228вс164;Nissan Murano;красный;50000;1655987
ю131ам144;Nissan Navara;синий;100000;1766766
ц168пи131;Nissan Note;белый;30000;987895
у277рт128;Nissan NP300;черный;100000;1718352
к614оь184;Nissan Pathfinder;красный;80000;1207860
е565лб172;Nissan Patrol;синий;20000;1555760
н499дю138;Nissan Primera;белый;100000;1645631
г804цы122;Nissan Qashqai;черный;60000;964767
ш932ув157;Nissan Qashqai+2;красный;100000;403278
щ493ка178;Nissan Quest;синий;70000;872873
з211еп194;Nissan Rogue;белый;10000;659784
х641нр140;Nissan Sentra;черный;60000;488318
ж402го123;Nissan Skyline;красный;70000;798223
д889шл156;Nissan Sylphy;синий;80000;791847
л473щд185;Nissan Teana;белый;90000;1617870
о413зж153;Nissan Terrano;черный;30000;823628
р355цу140;Nissan Tiida;красный;100000;1819473
п060ыв162;Nissan Titan;синий;30000;533479
а833чс119;Nissan Titan XD;белый;60000;1284597
в331ук167;Nissan XTerra;черный;20000;1650687
ы508ва141;Nissan X-Trail;красный;20000;1353137
ф967см114;Nissan Z;синий;100000;950754
я774ен191;Noble M600;белый;20000;1803987
ч784пр155;Opel Adam;черный;20000;946288
с330ит199;Opel Agila;красный;80000;997000
м060нг117;Opel Antara;синий;20000;1440319
и296ро112;Opel Astra;белый;90000;1396858
т599ро188;Opel Astra GTS;черный;100000;1217619
б626фя112;Opel Cascada;красный;80000;627125
ю226ыч136;Opel Combo;синий;20000;917758
ц337вс122;Opel Corsa;белый;60000;605722
у369ам121;Opel Corsa OPC;черный;20000;493098
к537пи130;Opel Crossland X;красный;90000;1364405
е189рт149;Opel Frontera;синий;100000;1916905
н620оь190;Opel Grandland X;белый;100000;738208
г481лб177;Opel Insignia;черный;30000;1801976
ш328дю127;Opel Insignia OPC;красный;90000;1013888
щ889цы186;Opel Karl;синий;100000;745360
з634ув122;Opel Meriva;белый;80000;1455112
х196ка187;Opel Mokka;черный;10000;993325
ж976еп150;Opel Omega;красный;80000;855007
д588нр115;Opel Signum;синий;20000;1215781
л566го196;Opel Speedster;белый;70000;490479
о596шл124;Opel Tigra;черный;60000;718262
р172щд128;Opel Vectra;красный;60000;714180
п905зж129;Opel Vivaro;синий;30000;809794
а170цу178;Opel Zafira;белый;10000;1628562
в261ыв115;Opel Zafira Tourer;черный;100000;333634
ы301чс179;Peugeot 107;красный;90000;697456
ф111ук122;Peugeot 108;синий;60000;1936357
я275ва195;Peugeot 206;белый;90000;574410
ч422см154;Peugeot 207;черный;90000;0
с673ен180;Peugeot 208;красный;90000;520459
м285пр152;Peugeot 301;синий;60000;1349437
и305ит194;Peugeot 307;белый;80000;1283959
т694нг158;Peugeot 308;черный;100000;607813
б462ро142;Peugeot 406;красный;100000;799480
ю873ро117;Peugeot 407;синий;80000;1297571
ц533фя179;Peugeot 408;белый;90000;862467
у125ыч145;Peugeot 508;черный;10000;1944044
к666вс194;Peugeot 607;красный;10000;1231149
е756ам165;Peugeot 807;синий;70000;1975461
н979пи118;Peugeot 1007;белый;40000;1995488
г478рт137;Peugeot 2008;черный;100000;583949
ш842оь190;Peugeot 3008;красный;100000;573054
щ648лб196;Peugeot 4007;синий;60000;1713898
з204дю148;Peugeot 4008;белый;70000;1689190
х703цы177;Peugeot 5008;черный;100000;1561831
ж699ув115;Peugeot Boxer;красный;10000;1224717
д087ка157;Peugeot Partner;синий;70000;1995483
л067еп149;Peugeot RCZ Sport;белый;80000;1123858
о149нр119;Plymouth Road Runner;черный;40000;903811
р463го137;Pontiac Aztec;красный;40000;1966924
п698шл160;Pontiac Bonneville;синий;50000;1692067
а724щд114;Pontiac Firebird;белый;100000;332299
в848зж117;Pontiac G5 Pursuit;черный;100000;619953
ы683цу112;Pontiac G6;красный;50000;1854521
ф842ыв121;Pontiac G8;синий;50000;595538
я863чс195;Pontiac Grand AM;белый;70000;985765
ч008ук148;Pontiac Grand Prix;черный;40000;925177
с387ва126;Pontiac GTO;красный;100000;1206730
м449см156;Pontiac Montana;синий;60000;647874
и539ен139;Pontiac Solstice;белый;60000;1114607
т752пр134;Pontiac Sunfire;черный;80000;347726
б306ит118;Pontiac Torrent;красный;70000;1711971
ю054нг147;Pontiac Vibe;синий;60000;544151
ц962ро189;Porsche 911;белый;90000;1182078
у797ро124;Porsche 718 Boxster;черный;100000;906724
к148фя187;Porsche 718 Cayman;красный;50000;1466228
е121ыч138;Porsche Boxster;синий;30000;1908958
н818вс127;Porsche Cayenne;белый;20000;389390
г947ам147;Porsche Cayman;черный;70000;1916932
ш340пи185;Porsche Macan;красный;100000;670677
щ813рт178;Porsche Panamera;синий;70000;1787325
з549оь113;Porsche Taycan;белый;20000;1274895
х173лб179;Ravon Gentra;черный;70000;1957202
ж941дю174;Renault Arkana;красный;40000;813456
д818цы134;Renault Avantime;синий;100000;918994
л598ув145;Renault Captur;белый;90000;1215312
о617ка121;Renault Clio;черный;20000;610792
р402еп146;Renault Duster;красный;70000;490674
п067нр126;Renault Duster Oroch;синий;50000;1975815
а674го113;Renault Espace;белый;80000;1239251
в008шл166;Renault Fluence;черный;30000;1620269
ы812щд139;Renault Grand Scenic;красный;70000;432768
ф927зж159;Renault Kadjar;синий;50000;1142725
я082цу189;Renault Kangoo;белый;50000;1493267
ч300ыв183;Renault Kaptur;черный;100000;984684
с503чс142;Renault Koleos;красный;20000;1759638
м277ук154;Renault Laguna;синий;100000;1171805
и985ва170;Renault Latitude;белый;90000;1675968
т629см197;Renault Logan;черный;60000;422259
б706ен191;Renault Master;красный;60000;450311
ю144пр180;Renault Megane;синий;90000;598800
ц671ит187;Renault Modus;белый;60000;432587
у567нг155;Renault Sandero;черный;90000;936355
к938ро164;Renault Sandero Stepway;красный;20000;384870
е734ро142;Renault Scenic;синий;100000;387949
н838фя130;Renault Symbol;белый;20000;718518
г570ыч196;Renault Talisman;черный;40000;844986
ш861вс121;Renault Trafic;красный;20000;606756
щ619ам197;Renault Twingo;синий;30000;593831
з269пи159;Renault Twizy;белый;60000;945845
х592рт197;Renault Vel Satis;черный;10000;1458517
ж151оь195;Renault Wind;красный;40000;639282
д173лб197;Renault Zoe;синий;30000;398366
л297дю183;Rolls-Royce Cullinan;белый;70000;781583
о915цы191;Rolls-Royce Dawn;черный;80000;1959665
р169ув156;Rolls-Royce Ghost;красный;100000;729955
п046ка129;Rolls-Royce Phantom;синий;70000;1514959
а266еп145;Rolls-Royce Wraith;белый;100000;1284038
в391нр116;Rover 25;черный;10000;520352
ы715го142;Rover 45;красный;90000;1964595
ф488шл120;Rover 75;синий;60000;842352
я170щд173;Rover 400;белый;50000;726620
ч275зж117;Rover 600;черный;70000;1189638
с485цу139;Rover Streetwise;красный;20000;1290061
м072ыв170;Saab 43899;синий;90000;1403018
и652чс137;Saab 43960;белый;40000;663574
т441ук179;Saab 9-2x;черный;10000;1485502
б536ва186;Saab 9-4x;красный;60000;380284
ю497см199;Saab 9-7x;синий;80000;1155657
ц743ен181;Saturn Aura;белый;80000;1974611
у217пр115;Saturn Ion;черный;40000;1957053
к967ит123;Saturn LW;красный;80000;1461916
е923нг174;Saturn Outlook;синий;60000;593219
н959ро172;Saturn Sky;белый;100000;1292046
г536ро150;Saturn Vue;черный;20000;519345
ш772фя132;Scion FR-S;красный;40000;1451101
щ064ыч192;Scion tC;синий;20000;1626695
з665вс131;Scion xA;белый;70000;1712803
х929ам118;Scion xB;черный;60000;1368957
ж406пи155;Scion xD;красный;60000;364590
д245рт178;Seat Alhambra;синий;100000;950624
л898оь148;Seat Altea;белый;80000;1312735
о174лб140;Seat Altea Freetrack;черный;40000;1506029
р580дю112;Seat Altea XL;красный;90000;1642822
п135цы166;Seat Arosa;синий;50000;1235973
а927ув119;Seat Ateca;белый;60000;596462
в715ка184;Seat Cordoba;черный;30000;1925057
ы671еп177;Seat Exeo;красный;80000;451911
ф789нр192;Seat Ibiza;синий;20000;1736918
я307го119;Seat Leon;белый;30000;351278
ч661шл159;Seat Mii;черный;80000;1294486
с049щд191;Seat Toledo;красный;80000;1386441
м273зж128;Skoda Citigo;синий;50000;713229
и907цу130;Skoda Fabia;белый;90000;1514953
т791ыв121;Skoda Felicia;черный;30000;1343033
б087чс113;Skoda Kamiq;красный;20000;1933922
ю498ук189;Skoda Karoq;синий;20000;309525
ц986ва198;Skoda Kodiaq;белый;10000;1110707
у843см179;Skoda Octavia;черный;20000;625240
к056ен187;Skoda Octavia Scout;красный;30000;1293003
е278пр162;Skoda Octavia Tour;синий;40000;1386285
н134ит112;Skoda Praktik;белый;20000;938296
г559нг197;Skoda Rapid;черный;100000;1454709
ш126ро116;Skoda Rapid Spaceback (NH1);красный;40000;1559657
щ806ро111;Skoda Roomster;синий;40000;1802015
з971фя159;Skoda Superb;белый;60000;1763637
х618ыч121;Skoda Yeti;черный;50000;495782
ж048вс198;Smart Forfour;красный;70000;1889382
д277ам126;Smart Fortwo;синий;100000;1927446
л952пи129;Smart Roadster;белый;90000;1735346
о835рт154;Ssang Yong Actyon;черный;80000;964125
р266оь157;Ssang Yong Actyon Sports;красный;80000;722691
п253лб134;Ssang Yong Chairman;синий;100000;831733
а054дю141;Ssang Yong Korando;белый;100000;760178
в873цы133;Ssang Yong Kyron;черный;100000;1315314
ы278ув165;Ssang Yong Musso;красный;10000;1078226
ф634ка132;Ssang Yong Musso Sport;синий;100000;1989434
я994еп192;Ssang Yong Rexton;белый;70000;1331328
ч672нр175;Ssang Yong Rodius;черный;90000;369230
с294го189;Ssang Yong Stavic;красный;90000;1102181
м955шл181;Ssang Yong Tivoli;синий;90000;444200
и121щд144;Ssang Yong XLV;белый;70000;717192
т606зж162;Subaru Ascent;черный;30000;905426
б760цу191;Subaru Baja;красный;10000;1849896
ю040ыв137;Subaru Crosstrack;синий;80000;1750484
ц573чс124;Subaru Exiga;белый;80000;1439592
у573ук160;Subaru Forester;черный;30000;1767281
к258ва187;Subaru Impreza;красный;10000;381709
е968см122;Subaru Justy;синий;50000;993946
н240ен143;Subaru Legacy;белый;30000;1692544
г931пр122;Subaru Levorg;черный;50000;1458194
ш068ит165;Subaru Outback;красный;60000;1704648
щ695нг143;Subaru Traviq;синий;20000;1972915
з813ро131;Subaru Tribeca;белый;70000;1838222
х738ро131;Subaru WRX;черный;30000;1612923
ж698фя158;Subaru XV;красный;40000;1673779
д817ыч173;Suzuki Alto;синий;80000;514526
л653вс152;Suzuki Baleno;белый;50000;1731132
о585ам165;Suzuki Celerio;черный;90000;994936
р385пи153;Suzuki Ciaz;красный;20000;1084293
п609рт166;Suzuki Grand Vitara;синий;40000;1190599
а260оь149;Suzuki Grand Vitara XL7;белый;10000;976633
в800лб199;Suzuki Ignis;черный;20000;577626
ы640дю127;Suzuki Jimny;красный;90000;408689
ф557цы114;Suzuki Kizashi;синий;20000;1036384
я912ув132;Suzuki Liana;белый;30000;1355272
ч119ка185;Suzuki Splash;черный;100000;1130887
с834еп153;Suzuki Swift;красный;60000;1018345
м849нр190;Suzuki SX4;синий;10000;1879437
и647го181;Suzuki Vitara;белый;50000;1635392
т274шл125;Suzuki Wagon R;черный;100000;925908
б047щд134;Suzuki Wagon R+;красный;90000;1129453
ю540зж142;Tesla Model 3;синий;80000;1103860
ц840цу181;Tesla Model S;белый;30000;810975
у753ыв192;Tesla Model X;черный;40000;989800
к459чс185;Tesla Model Y;красный;30000;335727
е641ук198;Toyota 4Runner;синий;100000;769175
н836ва153;Toyota Alphard;белый;70000;1160443
г950см119;Toyota Auris;черный;100000;559545
ш275ен118;Toyota Avalon;красный;100000;859578
щ692пр194;Toyota Avensis;синий;80000;1595143
з860ит156;Toyota Avensis Verso;белый;70000;1656511
х631нг169;Toyota Aygo;черный;20000;995482
ж817ро128;Toyota Caldina;красный;20000;861517
д216ро157;Toyota Camry;синий;90000;1892435
л736фя139;Toyota Camry;белый;70000;1369824
о106ыч153;Toyota Camry;черный;20000;1545169
р022вс190;Toyota Camry;красный;90000;1453740
п126ам150;Toyota Camry;синий;60000;1237131
а151пи157;Toyota Camry;белый;100000;1629972
в699рт189;Toyota Camry;черный;10000;1881477
ы707оь117;Toyota Camry;красный;80000;1303996
ф560лб161;Toyota Camry;синий;40000;1905229
я357дю185;Toyota Camry;белый;100000;1955796
ч823цы197;Toyota Camry;черный;20000;514460
с901ув178;Toyota Camry;красный;90000;610527
м911ка161;Toyota Camry;синий;50000;1276557
и519еп185;Toyota Camry;белый;100000;640325
т850нр130;Toyota Camry;черный;30000;1580394
б610го165;Toyota Camry;красный;50000;1393950
ю275шл156;Toyota Camry;синий;20000;707268
ц981щд188;Toyota Camry;белый;60000;1446160
у611зж151;Toyota Camry;черный;20000;1737671
к479цу169;Toyota Camry;красный;30000;318208
е311ыв147;Toyota Camry;синий;60000;1660392
н731чс153;Toyota RAV4;белый;40000;1237240
г187ук189;Toyota Sequoia;черный;50000;1181246
ш848ва166;Toyota Sienna;красный;40000;1367166
щ216см141;Toyota Supra;синий;100000;912509
з073ен181;Toyota Tacoma;белый;100000;315804
х292пр191;Toyota Tundra;черный;100000;597668
ж073ит196;Toyota Venza;красный;50000;341783
д350нг122;Toyota Verso;синий;10000;425509
л157ро112;Toyota Vitz;белый;50000;707034
о747ро151;Toyota Yaris;черный;50000;1962710
р185фя151;Toyota Yaris Verso;красный;50000;1196314
п456ыч165;VAZ Granta;белый;100000;962018
а719вс181;VAZ Largus;черный;90000;821727
в079ам144;VAZ Largus Cross;красный;70000;887768
ы916пи183;VAZ Vesta Cross;синий;50000;495939
ф979рт135;VAZ Vesta Sport;белый;80000;438572
я823оь137;VAZ Vesta SW;черный;100000;934922
ч769лб198;VAZ XRay;красный;100000;1286689
с353дю147;VAZ XRay Cross;синий;30000;1627145
м468цы186;Volkswagen Amarok;белый;90000;1217352
и324ув134;Volkswagen Arteon;черный;30000;1079630
т630ка151;Volkswagen Beetle;красный;10000;753884
б923еп130;Volkswagen Bora;синий;50000;430511
ю937нр167;Volkswagen Caddy;белый;40000;1719185
ц327го117;Volkswagen CC;черный;50000;810255
у971шл177;Volkswagen Crafter;красный;80000;1149478
к828щд163;Volkswagen CrossGolf;синий;20000;896530
е624зж111;Volkswagen CrossPolo;белый;60000;445172
н783цу171;Volkswagen CrossTouran;черный;30000;314312
г236ыв141;Volkswagen Eos;красный;100000;1696138
ш088чс150;Volkswagen Fox;синий;100000;1650546
щ306ук191;Volkswagen Golf;белый;90000;1907966
з477ва165;Volkswagen Jetta;черный;10000;593802
х761см145;Volkswagen Lupo;красный;80000;1647808
ж677ен145;Volkswagen Multivan;синий;90000;805239
д308пр151;Volkswagen New Beetle;белый;10000;580469
л867ит122;Volkswagen Passat;черный;80000;633736
о373нг162;Volkswagen Passat CC;красный;70000;944484
р339ро184;Volkswagen Phaeton;синий;90000;1896646
п073ро193;Volkswagen Pointer;белый;30000;1277521
а903фя145;Volkswagen Polo;черный;70000;1450890
в331ыч146;Volkswagen Routan;красный;20000;811800
ы981вс165;Volkswagen Scirocco;синий;30000;984642
ф948ам196;Volkswagen Sharan;белый;50000;779303
я449пи163;Volkswagen Teramont;черный;70000;613727
ч479рт144;Volkswagen Tiguan;красный;30000;1007130
с488оь183;Volkswagen Touareg;синий;30000;1855933
м066лб134;Volkswagen Touran;белый;70000;602673
и542дю147;Volkswagen Transporter;черный;40000;1202923
т588цы154;Volkswagen T-Roc;красный;30000;609023
б014ув193;Volkswagen Up;синий;100000;766471
ю003ка197;Volvo C30;белый;100000;1508603
ц061еп160;Volvo C70;черный;40000;0
у184нр172;Volvo C70 Convertible;красный;80000;1516603
к779го182;Volvo C70 Coupe;синий;100000;1685020
е024шл170;Volvo S40;белый;60000;1887901
н270щд185;Volvo S60;черный;60000;858092
г542зж172;Volvo S70;красный;10000;380956
ш543цу152;Volvo S80;синий;30000;329883
щ062ыв117;Volvo S90;белый;10000;0
з378чс114;Volvo V40;черный;20000;822046
х542ук167;Volvo V50;красный;40000;898200
ж706ва169;Volvo V60;синий;30000;1635378
д310см148;Volvo V70;белый;40000;696298
л053ен154;Volvo V90;черный;80000;1361744
о537пр144;Volvo XC40;красный;40000;577443
р212ит199;Volvo XC60;синий;20000;423325
п376нг158;Volvo XC70;белый;40000;1652609
а819ро162;Volvo XC90;черный;50000;751468
